{
    "inputMessageMetadata": {},
    "outputMessageMetadata": {
        "messagePayload": {
            "connectorName": "#_custom_mule_metadata_type_#",
            "typeId": "american_flights_json"
        }
    },
    "id": "cfadc878-572a-4b64-94f5-3dfc87463dc3",
    "version": "5.2.0.0"
}